%YAML 1.1
%TAG !u! tag:unity3d.com,2011:
--- !u!221 &22100000
AnimatorOverrideController:
  m_ObjectHideFlags: 0
  m_PrefabParentObject: {fileID: 0}
  m_PrefabInternal: {fileID: 0}
  m_Name: enemyHeavy
  m_Controller: {fileID: 9100000, guid: 145320c3383eed746bdb27196fa4c266, type: 2}
  m_Clips:
  - m_OriginalClip: {fileID: 7400000, guid: 512dab1e86284894aae2b69a9ec97c01, type: 2}
    m_OverrideClip: {fileID: 7400000, guid: dfd926a96ad8a2745a5269f4cf61b660, type: 2}
  - m_OriginalClip: {fileID: 7400000, guid: 9de0f5eca9ce8364f8c21a8c0fa8ec7e, type: 2}
    m_OverrideClip: {fileID: 7400000, guid: 42700a70bd1e4e947b0daa0ea53f8dc9, type: 2}
  - m_OriginalClip: {fileID: 7400000, guid: 1843341f819afa74d8b6bdf41f3acd9a, type: 2}
    m_OverrideClip: {fileID: 7400000, guid: caeeab2d8d73a454ea42cbd738da08f5, type: 2}
  - m_OriginalClip: {fileID: 7400000, guid: 7cc0354898c091e4ba85fa84c10450a8, type: 2}
    m_OverrideClip: {fileID: 7400000, guid: 646265a0115d38c4494a0d1efb419d75, type: 2}
  - m_OriginalClip: {fileID: 7400000, guid: 6a32e68d56fec684b9837c294a386192, type: 2}
    m_OverrideClip: {fileID: 7400000, guid: 2dd984257d0047d48af6429fbbcff622, type: 2}
